{
  "employee": [
    {
      "first_name": "bbbb",
      "last_name": "yyy",
      "email": "azman1204@yahoo.com",
      "id": 2
    },
    {
      "first_name": "bbb",
      "last_name": "bbbb",
      "email": "azman740412@gmail.com",
      "id": 3
    },
    {
      "first_name": "Azwa Safrina",
      "last_name": "Azman",
      "email": "azwa@gmail.com",
      "id": 4
    },
    {
      "first_name": "ooo",
      "last_name": "ooo",
      "email": "azman1204@yahoo.com",
      "id": 5
    },
    {
      "first_name": "ooo",
      "last_name": "ooo",
      "email": "azman1204@yahoo.com",
      "id": 6
    },
    {
      "first_name": "ooo",
      "last_name": "kkkk",
      "email": "azman1204@yahoo.com",
      "id": 7
    }
  ],
  "region": []
}